{
  "failures": [],
  "generated_at": "2026-06-16T03:09:59+00:00",
  "modality": {
    "id": 6,
    "name": "Pregao - Eletronico"
  },
  "period": {
    "end": "2026-06-15",
    "start": "2025-06-15"
  },
  "sources": [
    {
      "chunk_days": 31,
      "chunks": [
        {
          "end": "2025-07-15",
          "pages_collected": 1,
          "pagination_complete": true,
          "pagination_stopped_reason": null,
          "records": 4,
          "start": "2025-06-15",
          "total_pages": 1,
          "total_records": 4
        },
        {
          "end": "2025-08-15",
          "pages_collected": 1,
          "pagination_complete": true,
          "pagination_stopped_reason": null,
          "records": 7,
          "start": "2025-07-16",
          "total_pages": 1,
          "total_records": 7
        },
        {
          "end": "2025-09-15",
          "pages_collected": 1,
          "pagination_complete": true,
          "pagination_stopped_reason": null,
          "records": 6,
          "start": "2025-08-16",
          "total_pages": 1,
          "total_records": 6
        },
        {
          "end": "2025-10-16",
          "pages_collected": 1,
          "pagination_complete": true,
          "pagination_stopped_reason": null,
          "records": 5,
          "start": "2025-09-16",
          "total_pages": 1,
          "total_records": 5
        },
        {
          "end": "2025-11-16",
          "pages_collected": 1,
          "pagination_complete": true,
          "pagination_stopped_reason": null,
          "records": 1,
          "start": "2025-10-17",
          "total_pages": 1,
          "total_records": 1
        },
        {
          "end": "2025-12-17",
          "pages_collected": 1,
          "pagination_complete": true,
          "pagination_stopped_reason": null,
          "records": 1,
          "start": "2025-11-17",
          "total_pages": 1,
          "total_records": 1
        },
        {
          "end": "2026-01-17",
          "pages_collected": 1,
          "pagination_complete": true,
          "pagination_stopped_reason": null,
          "records": 0,
          "start": "2025-12-18",
          "total_pages": 1,
          "total_records": 0
        },
        {
          "end": "2026-02-17",
          "pages_collected": 1,
          "pagination_complete": true,
          "pagination_stopped_reason": null,
          "records": 2,
          "start": "2026-01-18",
          "total_pages": 1,
          "total_records": 2
        },
        {
          "end": "2026-03-20",
          "pages_collected": 1,
          "pagination_complete": true,
          "pagination_stopped_reason": null,
          "records": 4,
          "start": "2026-02-18",
          "total_pages": 1,
          "total_records": 4
        },
        {
          "end": "2026-04-20",
          "pages_collected": 1,
          "pagination_complete": true,
          "pagination_stopped_reason": null,
          "records": 0,
          "start": "2026-03-21",
          "total_pages": 1,
          "total_records": 0
        },
        {
          "end": "2026-05-21",
          "pages_collected": 1,
          "pagination_complete": true,
          "pagination_stopped_reason": null,
          "records": 0,
          "start": "2026-04-21",
          "total_pages": 1,
          "total_records": 0
        },
        {
          "end": "2026-06-15",
          "pages_collected": 1,
          "pagination_complete": true,
          "pagination_stopped_reason": null,
          "records": 0,
          "start": "2026-05-22",
          "total_pages": 1,
          "total_records": 0
        }
      ],
      "city": "Sao Paulo",
      "kind": "matrix_cnpj",
      "pages_collected": 12,
      "pagination_complete": true,
      "pagination_stopped_reason": null,
      "path": "data/raw/sao-paulo_cnpj_46395000000139_contratacoes.json",
      "records": 30,
      "total_pages": 12,
      "total_records": 30
    },
    {
      "chunk_days": 31,
      "chunks": [
        {
          "end": "2025-07-15",
          "pages_collected": 32,
          "pagination_complete": true,
          "pagination_stopped_reason": null,
          "records": 1574,
          "start": "2025-06-15",
          "total_pages": 32,
          "total_records": 1574
        },
        {
          "end": "2025-08-15",
          "pages_collected": 37,
          "pagination_complete": true,
          "pagination_stopped_reason": null,
          "records": 1820,
          "start": "2025-07-16",
          "total_pages": 37,
          "total_records": 1820
        },
        {
          "end": "2025-09-15",
          "pages_collected": 36,
          "pagination_complete": true,
          "pagination_stopped_reason": null,
          "records": 1778,
          "start": "2025-08-16",
          "total_pages": 36,
          "total_records": 1778
        },
        {
          "end": "2025-10-16",
          "pages_collected": 40,
          "pagination_complete": true,
          "pagination_stopped_reason": null,
          "records": 1970,
          "start": "2025-09-16",
          "total_pages": 40,
          "total_records": 1970
        },
        {
          "end": "2025-11-16",
          "pages_collected": 37,
          "pagination_complete": true,
          "pagination_stopped_reason": null,
          "records": 1809,
          "start": "2025-10-17",
          "total_pages": 37,
          "total_records": 1809
        },
        {
          "end": "2025-12-17",
          "pages_collected": 32,
          "pagination_complete": true,
          "pagination_stopped_reason": null,
          "records": 1561,
          "start": "2025-11-17",
          "total_pages": 32,
          "total_records": 1561
        },
        {
          "end": "2026-01-17",
          "pages_collected": 15,
          "pagination_complete": true,
          "pagination_stopped_reason": null,
          "records": 715,
          "start": "2025-12-18",
          "total_pages": 15,
          "total_records": 715
        },
        {
          "end": "2026-02-17",
          "pages_collected": 20,
          "pagination_complete": true,
          "pagination_stopped_reason": null,
          "records": 985,
          "start": "2026-01-18",
          "total_pages": 20,
          "total_records": 985
        },
        {
          "end": "2026-03-20",
          "pages_collected": 29,
          "pagination_complete": true,
          "pagination_stopped_reason": null,
          "records": 1434,
          "start": "2026-02-18",
          "total_pages": 29,
          "total_records": 1434
        },
        {
          "end": "2026-04-20",
          "pages_collected": 26,
          "pagination_complete": true,
          "pagination_stopped_reason": null,
          "records": 1269,
          "start": "2026-03-21",
          "total_pages": 26,
          "total_records": 1269
        },
        {
          "end": "2026-05-21",
          "pages_collected": 31,
          "pagination_complete": true,
          "pagination_stopped_reason": null,
          "records": 1546,
          "start": "2026-04-21",
          "total_pages": 31,
          "total_records": 1546
        },
        {
          "end": "2026-06-15",
          "pages_collected": 24,
          "pagination_complete": true,
          "pagination_stopped_reason": null,
          "records": 1193,
          "start": "2026-05-22",
          "total_pages": 24,
          "total_records": 1193
        }
      ],
      "city": "Sao Paulo",
      "kind": "municipality_scan",
      "max_pages": null,
      "pages_collected": 359,
      "pagination_complete": true,
      "pagination_stopped_reason": null,
      "path": "data/raw/sao-paulo_municipio_3550308_contratacoes.json",
      "records": 17654,
      "total_pages": 359,
      "total_records": 17654
    },
    {
      "chunk_days": 31,
      "chunks": [
        {
          "end": "2025-07-15",
          "pages_collected": 2,
          "pagination_complete": true,
          "pagination_stopped_reason": null,
          "records": 58,
          "start": "2025-06-15",
          "total_pages": 2,
          "total_records": 58
        },
        {
          "end": "2025-08-15",
          "pages_collected": 3,
          "pagination_complete": true,
          "pagination_stopped_reason": null,
          "records": 110,
          "start": "2025-07-16",
          "total_pages": 3,
          "total_records": 110
        },
        {
          "end": "2025-09-15",
          "pages_collected": 2,
          "pagination_complete": true,
          "pagination_stopped_reason": null,
          "records": 98,
          "start": "2025-08-16",
          "total_pages": 2,
          "total_records": 98
        },
        {
          "end": "2025-10-16",
          "pages_collected": 2,
          "pagination_complete": true,
          "pagination_stopped_reason": null,
          "records": 76,
          "start": "2025-09-16",
          "total_pages": 2,
          "total_records": 76
        },
        {
          "end": "2025-11-16",
          "pages_collected": 2,
          "pagination_complete": true,
          "pagination_stopped_reason": null,
          "records": 70,
          "start": "2025-10-17",
          "total_pages": 2,
          "total_records": 70
        },
        {
          "end": "2025-12-17",
          "pages_collected": 2,
          "pagination_complete": true,
          "pagination_stopped_reason": null,
          "records": 77,
          "start": "2025-11-17",
          "total_pages": 2,
          "total_records": 77
        },
        {
          "end": "2026-01-17",
          "pages_collected": 1,
          "pagination_complete": true,
          "pagination_stopped_reason": null,
          "records": 46,
          "start": "2025-12-18",
          "total_pages": 1,
          "total_records": 46
        },
        {
          "end": "2026-02-17",
          "pages_collected": 1,
          "pagination_complete": true,
          "pagination_stopped_reason": null,
          "records": 42,
          "start": "2026-01-18",
          "total_pages": 1,
          "total_records": 42
        },
        {
          "end": "2026-03-20",
          "pages_collected": 2,
          "pagination_complete": true,
          "pagination_stopped_reason": null,
          "records": 71,
          "start": "2026-02-18",
          "total_pages": 2,
          "total_records": 71
        },
        {
          "end": "2026-04-20",
          "pages_collected": 2,
          "pagination_complete": true,
          "pagination_stopped_reason": null,
          "records": 97,
          "start": "2026-03-21",
          "total_pages": 2,
          "total_records": 97
        },
        {
          "end": "2026-05-21",
          "pages_collected": 2,
          "pagination_complete": true,
          "pagination_stopped_reason": null,
          "records": 88,
          "start": "2026-04-21",
          "total_pages": 2,
          "total_records": 88
        },
        {
          "end": "2026-06-15",
          "pages_collected": 2,
          "pagination_complete": true,
          "pagination_stopped_reason": null,
          "records": 63,
          "start": "2026-05-22",
          "total_pages": 2,
          "total_records": 63
        }
      ],
      "city": "Rio de Janeiro",
      "kind": "matrix_cnpj",
      "pages_collected": 23,
      "pagination_complete": true,
      "pagination_stopped_reason": null,
      "path": "data/raw/rio-de-janeiro_cnpj_42498733000148_contratacoes.json",
      "records": 896,
      "total_pages": 23,
      "total_records": 896
    },
    {
      "chunk_days": 31,
      "chunks": [
        {
          "end": "2025-07-15",
          "pages_collected": 1,
          "pagination_complete": true,
          "pagination_stopped_reason": null,
          "records": 29,
          "start": "2025-06-15",
          "total_pages": 1,
          "total_records": 29
        },
        {
          "end": "2025-08-15",
          "pages_collected": 1,
          "pagination_complete": true,
          "pagination_stopped_reason": null,
          "records": 34,
          "start": "2025-07-16",
          "total_pages": 1,
          "total_records": 34
        },
        {
          "end": "2025-09-15",
          "pages_collected": 1,
          "pagination_complete": true,
          "pagination_stopped_reason": null,
          "records": 30,
          "start": "2025-08-16",
          "total_pages": 1,
          "total_records": 30
        },
        {
          "end": "2025-10-16",
          "pages_collected": 1,
          "pagination_complete": true,
          "pagination_stopped_reason": null,
          "records": 34,
          "start": "2025-09-16",
          "total_pages": 1,
          "total_records": 34
        },
        {
          "end": "2025-11-16",
          "pages_collected": 1,
          "pagination_complete": true,
          "pagination_stopped_reason": null,
          "records": 27,
          "start": "2025-10-17",
          "total_pages": 1,
          "total_records": 27
        },
        {
          "end": "2025-12-17",
          "pages_collected": 1,
          "pagination_complete": true,
          "pagination_stopped_reason": null,
          "records": 24,
          "start": "2025-11-17",
          "total_pages": 1,
          "total_records": 24
        },
        {
          "end": "2026-01-17",
          "pages_collected": 1,
          "pagination_complete": true,
          "pagination_stopped_reason": null,
          "records": 19,
          "start": "2025-12-18",
          "total_pages": 1,
          "total_records": 19
        },
        {
          "end": "2026-02-17",
          "pages_collected": 1,
          "pagination_complete": true,
          "pagination_stopped_reason": null,
          "records": 26,
          "start": "2026-01-18",
          "total_pages": 1,
          "total_records": 26
        },
        {
          "end": "2026-03-20",
          "pages_collected": 1,
          "pagination_complete": true,
          "pagination_stopped_reason": null,
          "records": 18,
          "start": "2026-02-18",
          "total_pages": 1,
          "total_records": 18
        },
        {
          "end": "2026-04-20",
          "pages_collected": 1,
          "pagination_complete": true,
          "pagination_stopped_reason": null,
          "records": 18,
          "start": "2026-03-21",
          "total_pages": 1,
          "total_records": 18
        },
        {
          "end": "2026-05-21",
          "pages_collected": 1,
          "pagination_complete": true,
          "pagination_stopped_reason": null,
          "records": 14,
          "start": "2026-04-21",
          "total_pages": 1,
          "total_records": 14
        },
        {
          "end": "2026-06-15",
          "pages_collected": 1,
          "pagination_complete": true,
          "pagination_stopped_reason": null,
          "records": 18,
          "start": "2026-05-22",
          "total_pages": 1,
          "total_records": 18
        }
      ],
      "city": "Belo Horizonte",
      "kind": "matrix_cnpj",
      "pages_collected": 12,
      "pagination_complete": true,
      "pagination_stopped_reason": null,
      "path": "data/raw/belo-horizonte_cnpj_18715383000140_contratacoes.json",
      "records": 291,
      "total_pages": 12,
      "total_records": 291
    },
    {
      "chunk_days": 31,
      "chunks": [
        {
          "end": "2025-07-15",
          "pages_collected": 1,
          "pagination_complete": true,
          "pagination_stopped_reason": null,
          "records": 19,
          "start": "2025-06-15",
          "total_pages": 1,
          "total_records": 19
        },
        {
          "end": "2025-08-15",
          "pages_collected": 1,
          "pagination_complete": true,
          "pagination_stopped_reason": null,
          "records": 17,
          "start": "2025-07-16",
          "total_pages": 1,
          "total_records": 17
        },
        {
          "end": "2025-09-15",
          "pages_collected": 1,
          "pagination_complete": true,
          "pagination_stopped_reason": null,
          "records": 22,
          "start": "2025-08-16",
          "total_pages": 1,
          "total_records": 22
        },
        {
          "end": "2025-10-16",
          "pages_collected": 1,
          "pagination_complete": true,
          "pagination_stopped_reason": null,
          "records": 26,
          "start": "2025-09-16",
          "total_pages": 1,
          "total_records": 26
        },
        {
          "end": "2025-11-16",
          "pages_collected": 1,
          "pagination_complete": true,
          "pagination_stopped_reason": null,
          "records": 22,
          "start": "2025-10-17",
          "total_pages": 1,
          "total_records": 22
        },
        {
          "end": "2025-12-17",
          "pages_collected": 1,
          "pagination_complete": true,
          "pagination_stopped_reason": null,
          "records": 13,
          "start": "2025-11-17",
          "total_pages": 1,
          "total_records": 13
        },
        {
          "end": "2026-01-17",
          "pages_collected": 1,
          "pagination_complete": true,
          "pagination_stopped_reason": null,
          "records": 12,
          "start": "2025-12-18",
          "total_pages": 1,
          "total_records": 12
        },
        {
          "end": "2026-02-17",
          "pages_collected": 1,
          "pagination_complete": true,
          "pagination_stopped_reason": null,
          "records": 20,
          "start": "2026-01-18",
          "total_pages": 1,
          "total_records": 20
        },
        {
          "end": "2026-03-20",
          "pages_collected": 1,
          "pagination_complete": true,
          "pagination_stopped_reason": null,
          "records": 19,
          "start": "2026-02-18",
          "total_pages": 1,
          "total_records": 19
        },
        {
          "end": "2026-04-20",
          "pages_collected": 1,
          "pagination_complete": true,
          "pagination_stopped_reason": null,
          "records": 17,
          "start": "2026-03-21",
          "total_pages": 1,
          "total_records": 17
        },
        {
          "end": "2026-05-21",
          "pages_collected": 1,
          "pagination_complete": true,
          "pagination_stopped_reason": null,
          "records": 23,
          "start": "2026-04-21",
          "total_pages": 1,
          "total_records": 23
        },
        {
          "end": "2026-06-15",
          "pages_collected": 1,
          "pagination_complete": true,
          "pagination_stopped_reason": null,
          "records": 24,
          "start": "2026-05-22",
          "total_pages": 1,
          "total_records": 24
        }
      ],
      "city": "Vitoria",
      "kind": "matrix_cnpj",
      "pages_collected": 12,
      "pagination_complete": true,
      "pagination_stopped_reason": null,
      "path": "data/raw/vitoria_cnpj_27142058000126_contratacoes.json",
      "records": 234,
      "total_pages": 12,
      "total_records": 234
    }
  ]
}
